<?xml version="1.0" encoding="UTF-8"?>
<session version="1.0">
<refactoring comment="Copy element &apos;log4j2.xml&apos; to &apos;IGOSatCommandControlCenter/src/main/resources&apos;&#x0D;&#x0A;- Original project: &apos;IGOSatServer&apos;&#x0D;&#x0A;- Destination element: &apos;IGOSatCommandControlCenter/src/main/resources&apos;&#x0D;&#x0A;- Original element: &apos;log4j2.xml&apos;" description="Copy file" destination="=IGOSatCommandControlCenter/src\/main\/resources" element1="src/main/resources/log4j2.xml" files="1" flags="589830" folders="0" id="org.eclipse.jdt.ui.copy" policy="org.eclipse.jdt.ui.copyResources" stamp="1472997467986" units="0" version="1.0"/>
</session>