<?xml version="1.0" encoding="UTF-8"?>
<session version="1.0">
<refactoring comment="Rename method &apos;com.igosat.configurationPanel.controller.ConfigurationPanelController.ConfigurationPanelControllerk(...)&apos; to &apos;setConfigurationPanelController&apos;&#x0D;&#x0A;- Original project: &apos;IGOSatCommandControlCenter&apos;&#x0D;&#x0A;- Original element: &apos;com.igosat.configurationPanel.controller.ConfigurationPanelController.ConfigurationPanelControllerk(...)&apos;&#x0D;&#x0A;- Renamed element: &apos;com.igosat.configurationPanel.controller.ConfigurationPanelController.setConfigurationPanelController(...)&apos;&#x0D;&#x0A;- Update references to refactored element" delegate="false" deprecate="false" description="Rename method &apos;ConfigurationPanelControllerk&apos;" flags="589830" id="org.eclipse.jdt.ui.rename.method" input="/src\/main\/java&lt;com.igosat.configurationPanel.controller{ConfigurationPanelController.java[ConfigurationPanelController~ConfigurationPanelControllerk~QConfigurationPanelDAO;~QConfigurationPanelGUI;" name="setConfigurationPanelController" references="true" stamp="1471296345337" version="1.0"/>
</session>